

// ! React-Mockjs: https://www.jb51.net/article/240364.htm

{
  "code": 0,
  "message": "",
  "result": {
    "list|10": [{
      "id|+1": 1,
      "username": "@cname",
      "sex|1-2": 1,
      "state|1-5": 1,
      "interest|1-8": 1,
      "isMarried|0-1": 1,
      "birthday": "@date('yyyy-MM-dd')",
      "address": "@county(true)",
      "time": "@time('HH:mm:ss')",
      "email": "@email"
    }],
    "page": 1,
    "page_size": 10,
    "total_count": 30
  }
}


// {
//   "success": true,
//   "data": {
//       "projects|3-10": [
//           {
//               "name": "演示用",
//               "url": "@url",
//               "email": "@email",
//               "address": "@county(true)",
//               "string|1-10": "★",
//               "number|1-100": 100,
//               "boolean|1-2": true,
//               "object|2": {
//                   "310000": "上海市",
//                   "320000": "江苏省",
//                   "330000": "浙江省"
//               }
//           }
//       ]
//   }
// }


// {
//   "code":"0",
//   "result": {
//     "page": 1,
//     "page_size": 10,
//     "total_count": 60,
//     "page_count": 6,
//     "item_list|10": [{
//       "id|+1": 1,
//       "name": "@city",
//       "mode|1-2": 1,
//       "op_mode|1-2": 1,
//       "franchisee_id": 77,
//       "franchisee_name": "松果自营",
//       "city_admins|1-2": [{
//         "user_name": "@cname",
//         "user_id|+1": 10001
//       }],
//       "open_time": "@datetime",
//       "sys_user_name": "@cname",
//       "update_time": 1520476737000
//     }]
//   }
// }
